Demographics-Foster_care
…
education <- read_excel("/Users/julierebstock/Desktop/Virginia Tech/DSPG 2021/Loudoun County/Demographics/education /acs2019_1yr_B15002_01000US.xlsx")

## New names:
## * `` -> ...3
## * `` -> ...4
## * `` -> ...5
## * `` -> ...6
## * `` -> ...7
## * ...

education <- education[-c(1,2,3), c(1,6)]
colnames(education) <- c("Schooling", "Total")
education

## # A tibble: 34 x 2
##    Schooling                                   Total 
##    <chr>                                       <chr> 
##  1 Male:                                       130360
##  2 No schooling completed                      1378  
##  3 Nursery to 4th grade                        72    
##  4 5th and 6th grade                           1192  
##  5 7th and 8th grade                           343   
##  6 9th grade                                   829   
##  7 10th grade                                  361   
##  8 11th grade                                  884   
##  9 12th grade, no diploma                      1209  
## 10 High school graduate (includes equivalency) 15811 
## #  with 24 more rows
…
